lab4/cpu.vcd
$date
	Mon Jun 07 20:13:04 2021
$end
$version
	Icarus Verilog
$end
$timescale
	1ps
$end
$scope module TestBench $end
$var reg 1 ! CLK $end
$var reg 1 " RST $end
$var reg 32 # addr [31:0] $end
$var reg 32 $ data [31:0] $end
$var reg 32 % instruction [31:0] $end
$var reg 4 & k [3:0] $end
$var reg 32 ' pc [31:0] $end
$var reg 5 ( rd [4:0] $end
$var reg 5 ) rs [4:0] $end
$var reg 5 * rt [4:0] $end
$var integer 32 + count [31:0] $end
$var integer 32 , error_record [31:0] $end
$var integer 32 - handle [31:0] $end
$var integer 32 . i [31:0] $end
$var integer 32 / initail_error [31:0] $end
$var integer 32 0 j [31:0] $end
$var integer 32 1 mode [31:0] $end
$var integer 32 2 score [31:0] $end
$scope module cpu $end
$var wire 1 ! clk_i $end
$var wire 1 3 overflow $end
$var wire 1 " rst_n $end
$var wire 1 4 shvamt $end
$var wire 1 5 zero_slt $end
$var wire 1 6 zero $end
$var wire 32 7 writeData [31:0] $end
$var wire 5 8 toShifter [4:0] $end
$var wire 32 9 shifter_res [31:0] $end
$var wire 32 : result_source [31:0] $end
$var wire 32 ; readData2 [31:0] $end
$var wire 32 < readData1 [31:0] $end
$var wire 32 = pc_to_ins [31:0] $end
$var wire 32 > pc_result [31:0] $end
$var wire 32 ? pc_for_branch [31:0] $end
$var wire 32 @ pc_adder2_o [31:0] $end
$var wire 32 A pc_adder1_o [31:0] $end
$var wire 1 B notless $end
$var wire 32 C mem_output [31:0] $end
$var wire 1 D less $end
$var wire 32 E instr_ze [31:0] $end
$var wire 5 F instr_to_write [4:0] $end
$var wire 32 G instr_o [31:0] $end
$var wire 32 H instr_ext [31:0] $end
$var wire 32 I alu_mux [31:0] $end
$var wire 1 J RegWrite $end
$var wire 2 K RegDst [1:0] $end
$var wire 5 L RTaddr [4:0] $end
$var wire 2 M MemtoReg [1:0] $end
$var wire 1 N MemWrite $end
$var wire 1 O MemRead $end
$var wire 2 P Jump [1:0] $end
$var wire 2 Q FURslt [1:0] $end
$var wire 1 R BranchType $end
$var wire 1 S Branch $end
$var wire 1 T Blt $end
$var wire 1 U Bgez $end
$var wire 32 V ALU_result [31:0] $end
$var wire 4 W ALU_operation [3:0] $end
$var wire 1 X ALUSrc $end
$var wire 3 Y ALUOp [2:0] $end
$scope module AC $end
$var wire 1 4 ShiftV_o $end
$var wire 6 Z funct_i [5:0] $end
$var wire 1 [ ShifterV_o $end
$var wire 2 \ FURslt_o [1:0] $end
$var wire 4 ] ALU_operation_o [3:0] $end
$var wire 3 ^ ALUOp_i [2:0] $end
$upscope $end
$scope module ALU $end
$var wire 4 _ ALU_operation_i [3:0] $end
$var wire 1 B notless $end
$var wire 1 3 overflow $end
$var wire 1 6 zero $end
$var wire 1 D less $end
$var wire 32 ` aluSrc2 [31:0] $end
$var wire 32 a aluSrc1 [31:0] $end
$var reg 32 b result [31:0] $end
$upscope $end
$scope module ALU_src2Src $end
$var wire 1 X select_i $end
$var wire 32 c data_o [31:0] $end
$var wire 32 d data1_i [31:0] $end
$var wire 32 e data0_i [31:0] $end
$upscope $end
$scope module Adder1 $end
$var wire 32 f src2_i [31:0] $end
$var wire 32 g sum_o [31:0] $end
$var wire 32 h src1_i [31:0] $end
$upscope $end
$scope module Adder2 $end
$var wire 32 i src1_i [31:0] $end
$var wire 32 j src2_i [31:0] $end
$var wire 32 k sum_o [31:0] $end
$upscope $end
$scope module Branch_mux $end
$var wire 32 l data0_i [31:0] $end
$var wire 32 m data1_i [31:0] $end
$var wire 1 n select_i $end
$var wire 32 o data_o [31:0] $end
$upscope $end
$scope module DM $end
$var wire 1 ! clk_i $end
$var wire 32 p data_i [31:0] $end
$var wire 32 q addr_i [31:0] $end
$var wire 1 N MemWrite_i $end
$var wire 1 O MemRead_i $end
$var reg 32 r data_o [31:0] $end
$var integer 32 s i [31:0] $end
$upscope $end
$scope module Decoder $end
$var wire 6 t funct_i [5:0] $end
$var wire 6 u instr_op_i [5:0] $end
$var wire 1 J RegWrite_o $end
$var wire 2 v RegDst_o [1:0] $end
$var wire 2 w MemtoReg_o [1:0] $end
$var wire 1 N MemWrite_o $end
$var wire 1 O MemRead_o $end
$var wire 2 x Jump_o [1:0] $end
$var wire 1 S Branch_o $end
$var wire 1 R BranchType_o $end
$var wire 1 T Blt_o $end
$var wire 1 U Bgez_o $end
$var wire 1 X ALUSrc_o $end
$var wire 3 y ALUOp_o [2:0] $end
$upscope $end
$scope module IM $end
$var wire 32 z pc_addr_i [31:0] $end
$var reg 32 { instr_o [31:0] $end
$var integer 32 | i [31:0] $end
$upscope $end
$scope module Jump_mux $end
$var wire 32 } data0_i [31:0] $end
$var wire 32 ~ data1_i [31:0] $end
$var wire 2 !" select_i [1:0] $end
$var wire 32 "" data_o [31:0] $end
$var wire 32 #" data2_i [31:0] $end
$upscope $end
$scope module Mem_WD $end
$var wire 32 $" data1_i [31:0] $end
$var wire 32 %" data2_i [31:0] $end
$var wire 2 &" select_i [1:0] $end
$var wire 32 '" data_o [31:0] $end
$var wire 32 (" data0_i [31:0] $end
$upscope $end
$scope module Mux_Bgez $end
$var wire 5 )" data0_i [4:0] $end
$var wire 5 *" data1_i [4:0] $end
$var wire 1 U select_i $end
$var wire 5 +" data_o [4:0] $end
$upscope $end
$scope module Mux_Write_Reg $end
$var wire 5 ," data0_i [4:0] $end
$var wire 5 -" data1_i [4:0] $end
$var wire 5 ." data2_i [4:0] $end
$var wire 2 /" select_i [1:0] $end
$var wire 5 0" data_o [4:0] $end
$upscope $end
$scope module PC $end
$var wire 1 ! clk_i $end
$var wire 32 1" pc_in_i [31:0] $end
$var wire 1 " rst_n $end
$var reg 32 2" pc_out_o [31:0] $end
$upscope $end
$scope module RDdata_Source $end
$var wire 32 3" data0_i [31:0] $end
$var wire 2 4" select_i [1:0] $end
$var wire 32 5" data_o [31:0] $end
$var wire 32 6" data2_i [31:0] $end
$var wire 32 7" data1_i [31:0] $end
$upscope $end
$scope module RF $end
$var wire 5 8" RDaddr_i [4:0] $end
$var wire 32 9" RDdata_i [31:0] $end
$var wire 5 :" RSaddr_i [4:0] $end
$var wire 32 ;" RSdata_o [31:0] $end
$var wire 5 <" RTaddr_i [4:0] $end
$var wire 32 =" RTdata_o [31:0] $end
$var wire 1 J RegWrite_i $end
$var wire 1 ! clk_i $end
$var wire 1 " rst_n $end
$upscope $end
$scope module SE $end
$var wire 16 >" data_i [15:0] $end
$var wire 32 ?" data_o [31:0] $end
$upscope $end
$scope module ZF $end
$var wire 16 @" data_i [15:0] $end
$var wire 32 A" data_o [31:0] $end
$upscope $end
$scope module Zero_mux $end
$var wire 1 6 data0_i $end
$var wire 1 B" data1_i $end
$var wire 1 R select_i $end
$var wire 1 5 data_o $end
$upscope $end
$scope module shifter $end
$var wire 1 C" leftRight $end
$var wire 32 D" sftSrc [31:0] $end
$var wire 5 E" shamt [4:0] $end
$var wire 32 F" result [31:0] $end
$upscope $end
$scope module shiftvariable $end
$var wire 5 G" data0_i [4:0] $end
$var wire 5 H" data1_i [4:0] $end
$var wire 1 4 select_i $end
$var wire 5 I" data_o [4:0] $end
$upscope $end
$upscope $end
$upscope $end
$enddefinitions $end
#0
$dumpvars
bx I"
bx H"
bx G"
bx F"
bx E"
bx D"
xC"
0B"
b0xxxxxxxxxxxxxxxx A"
bx @"
bx ?"
bx >"
bx ="
bx <"
bx ;"
bx :"
bx 9"
bx 8"
bx 7"
b0xxxxxxxxxxxxxxxx 6"
bx 5"
b0x 4"
b0 3"
bx 2"
bx 1"
bx 0"
bx /"
b11111 ."
bx -"
bx ,"
bx +"
b0 *"
bx )"
bx ("
bx '"
bx &"
bx %"
bx $"
bx #"
bx ""
bx !"
bx00 ~
bx }
b100000 |
bx {
bx z
bx y
bx x
bx w
bx v
bx u
bx t
b10000000 s
bx r
bx q
bx p
bx o
xn
bx m
bx l
bx k
bx00 j
bx i
bx h
bx g
b100 f
bx e
bx d
bx c
b0 b
bx a
bx `
bx _
bx ^
bx ]
b0x \
x[
bx Z
bx Y
xX
bx W
b0 V
xU
xT
xS
xR
b0x Q
bx P
xO
xN
bx M
bx L
bx K
xJ
bx I
bx H
bx G
bx F
b0xxxxxxxxxxxxxxxx E
0D
bx C
1B
bx A
bx @
bx ?
bx >
bx =
bx <
bx ;
bx :
bx 9
bx 8
bx 7
16
x5
z4
z3
bx 2
b0 1
bx 0
bx /
b10000000 .
b10 -
bx ,
b0 +
bx *
bx )
bx (
bx '
bx &
b0 %
bx $
bx #
0"
0!
$end
#5000
1B"
06
b1 V
b1 b
b1 3"
b1 7
b1 '"
b1 9"
b1 :
b1 q
b1 ("
b1 5"
b1 F
b1 0"
b1 8"
b100 >
b100 ""
b100 1"
b100 ?
b100 o
b100 }
b1 9
b1 7"
b1 F"
0C"
b0 ;
b0 e
b0 p
b0 ="
0n
05
b1000 @
b1000 k
b1000 m
b1 I
b1 `
b1 c
b1 D"
b10 W
b10 ]
b10 _
b0 Q
b0 \
b0 4"
0[
b0 K
b0 v
b0 /"
1J
1X
0T
0U
0N
0O
b0 M
b0 w
b0 &"
0S
0R
b0 P
b0 x
b0 !"
b0 8
b0 E"
b0 I"
b100 j
b11 Y
b11 ^
b11 y
b0 H"
b1 L
b1 +"
b1 <"
b0 G"
b1 E
b1 6"
b1 A"
b1 @"
b1 H
b1 d
b1 ?"
b1 >"
b1 Z
b1 t
b1000 u
b0 <
b0 a
b0 #"
b0 ;"
b0 :"
b1 )"
b0 -"
b1 ,"
b1000000000000000100 ~
b100000000000010000000000000001 G
b100000000000010000000000000001 {
b100 A
b100 g
b100 i
b100 l
b100 %"
b0 =
b0 h
b0 z
b0 2"
1!
#10000
b1 *
b0 )
b100000000000010000000000000001 %
b100 '
1"
0!
#15000
b10 7
b10 '"
b10 9"
b10 :
b10 q
b10 ("
b10 5"
b10 V
b10 b
b10 3"
b10 9
b10 7"
b10 F"
b10 F
b10 0"
b10 8"
b1000 >
b1000 ""
b1000 1"
b10 I
b10 `
b10 c
b10 D"
b1000 j
b10 L
b10 +"
b10 <"
b10000000000000001000 ~
b10 E
b10 6"
b10 A"
b10 @"
b10 H
b10 d
b10 ?"
b10 >"
b10 Z
b10 t
b10 )"
b10 ,"
b1000 ?
b1000 o
b1000 }
b100000000000100000000000000010 G
b100000000000100000000000000010 {
b10000 @
b10000 k
b10000 m
b1000 A
b1000 g
b1000 i
b1000 l
b1000 %"
b100 =
b100 h
b100 z
b100 2"
b0 ;
b0 e
b0 p
b0 ="
1!
#20000
b10 *
b1000 '
b100000000000100000000000000010 %
b1 +
0!
#25000
b11 F
b11 0"
b11 8"
b1100 >
b1100 ""
b1100 1"
b11 L
b11 +"
b11 <"
b11000000000000001000 ~
b11 )"
b11 ,"
b1100 ?
b1100 o
b1100 }
b100000000000110000000000000010 G
b100000000000110000000000000010 {
b10100 @
b10100 k
b10100 m
b1100 A
b1100 g
b1100 i
b1100 l
b1100 %"
b1000 =
b1000 h
b1000 z
b1000 2"
b0 ;
b0 e
b0 p
b0 ="
1!
#30000
b11 *
b1100 '
b100000000000110000000000000010 %
b10 +
0!
#35000
b100 7
b100 '"
b100 9"
b100 :
b100 q
b100 ("
b100 5"
b100 V
b100 b
b100 3"
b100 9
b100 7"
b100 F"
b100 F
b100 0"
b100 8"
b10000 >
b10000 ""
b10000 1"
b100 I
b100 `
b100 c
b100 D"
b10000 j
b100 L
b100 +"
b100 <"
b100000000000000010000 ~
b100 E
b100 6"
b100 A"
b100 @"
b100 H
b100 d
b100 ?"
b100 >"
b100 Z
b100 t
b100 )"
b100 ,"
b10000 ?
b10000 o
b10000 }
b100000000001000000000000000100 G
b100000000001000000000000000100 {
b100000 @
b100000 k
b100000 m
b10000 A
b10000 g
b10000 i
b10000 l
b10000 %"
b1100 =
b1100 h
b1100 z
b1100 2"
b0 ;
b0 e
b0 p
b0 ="
1!
#40000
b100 *
b10000 '
b100000000001000000000000000100 %
b11 +
0!
#45000
b11111111111111111111111111111110 7
b11111111111111111111111111111110 '"
b11111111111111111111111111111110 9"
0B
b11111111111111111111111111111110 :
b11111111111111111111111111111110 q
b11111111111111111111111111111110 ("
b11111111111111111111111111111110 5"
1D
b11111111111111111111111111111110 V
b11111111111111111111111111111110 b
b11111111111111111111111111111110 3"
b110 W
b110 ]
b110 _
b10 9
b10 7"
b10 F"
b1 K
b1 v
b1 /"
0X
b101 F
b101 0"
b101 8"
b10100 >
b10100 ""
b10100 1"
b10 I
b10 `
b10 c
b10 D"
b1010000001000100 j
b10 Y
b10 ^
b10 y
b11 L
b11 +"
b11 <"
b11001010000001000100 ~
b10100000010001 E
b10100000010001 6"
b10100000010001 A"
b10100000010001 @"
b10100000010001 H
b10100000010001 d
b10100000010001 ?"
b10100000010001 >"
b10001 Z
b10001 t
b0 u
b11 )"
b101 -"
b11 ,"
b10100 ?
b10100 o
b10100 }
b110010100000010001 G
b110010100000010001 {
b1010000001011000 @
b1010000001011000 k
b1010000001011000 m
b10100 A
b10100 g
b10100 i
b10100 l
b10100 %"
b10000 =
b10000 h
b10000 z
b10000 2"
b10 ;
b10 e
b10 p
b10 ="
1!
#50000
b101 (
b11 *
b10100 '
b110010100000010001 %
b100 +
0!
#55000
b0 7
b0 '"
b0 9"
1B
b0 :
b0 q
b0 ("
b0 5"
15
0D
0B"
16
b0 V
b0 b
b0 3"
b0 9
b0 7"
b0 F"
b0 I
b0 `
b0 c
b0 D"
1N
b10 W
b10 ]
b10 _
b0 K
b0 v
b0 /"
0J
1X
b10 F
b10 0"
b10 8"
b11000 >
b11000 ""
b11000 1"
b0 j
b0 Y
b0 ^
b0 y
b10 L
b10 +"
b10 <"
b10000000000000000000 ~
b0 E
b0 6"
b0 A"
b0 @"
b0 H
b0 d
b0 ?"
b0 >"
b0 Z
b0 t
b101101 u
b10 )"
b0 -"
b10 ,"
b11000 ?
b11000 o
b11000 }
b10110100000000100000000000000000 G
b10110100000000100000000000000000 {
b11000 @
b11000 k
b11000 m
b11000 A
b11000 g
b11000 i
b11000 l
b11000 %"
b10100 =
b10100 h
b10100 z
b10100 2"
1!
#60000
b10 $
b0 #
b10 *
b11000 '
b10110100000000100000000000000000 %
b101 +
0!
#65000
b100 7
b100 '"
b100 9"
b100 :
b100 q
b100 ("
b100 5"
05
1B"
06
b100 V
b100 b
b100 3"
b100 9
b100 7"
b100 F"
b101 F
b101 0"
b101 8"
b11100 >
b11100 ""
b11100 1"
b100 I
b100 `
b100 c
b100 D"
b10000 j
b11111111111111111111111111111110 ;
b11111111111111111111111111111110 e
b11111111111111111111111111111110 p
b11111111111111111111111111111110 ="
b101 L
b101 +"
b101 <"
b101000000000000010000 ~
b100 E
b100 6"
b100 A"
b100 @"
b100 H
b100 d
b100 ?"
b100 >"
b100 Z
b100 t
b101 )"
b101 ,"
b11100 ?
b11100 o
b11100 }
b10110100000001010000000000000100 G
b10110100000001010000000000000100 {
b101100 @
b101100 k
b101100 m
b11100 A
b11100 g
b11100 i
b11100 l
b11100 %"
b11000 =
b11000 h
b11000 z
b11000 2"
1!
#70000
b11111111111111111111111111111110 $
b100 #
b101 *
b11100 '
b10110100000001010000000000000100 %
b110 +
0!
#75000
b0 :
b0 q
b0 ("
b0 5"
15
0B"
16
b0 V
b0 b
b0 3"
b10 7
b10 '"
b10 9"
b10 C
b10 r
b10 $"
b0 9
b0 7"
b0 F"
1J
0N
1O
b1 M
b1 w
b1 &"
b110 F
b110 0"
b110 8"
b100000 >
b100000 ""
b100000 1"
b0 I
b0 `
b0 c
b0 D"
b0 j
b0 ;
b0 e
b0 p
b0 ="
b110 L
b110 +"
b110 <"
b110000000000000000000 ~
b0 E
b0 6"
b0 A"
b0 @"
b0 H
b0 d
b0 ?"
b0 >"
b0 Z
b0 t
b101100 u
b110 )"
b110 ,"
b100000 ?
b100000 o
b100000 }
b10110000000001100000000000000000 G
b10110000000001100000000000000000 {
b100000 @
b100000 k
b100000 m
b100000 A
b100000 g
b100000 i
b100000 l
b100000 %"
b11100 =
b11100 h
b11100 z
b11100 2"
1!
#80000
b0 #
b110 *
b100000 '
b10110000000001100000000000000000 %
b111 +
0!
#85000
b11111111111111111111111111111110 7
b11111111111111111111111111111110 '"
b11111111111111111111111111111110 9"
b11111111111111111111111111111110 C
b11111111111111111111111111111110 r
b11111111111111111111111111111110 $"
b100 :
b100 q
b100 ("
b100 5"
05
1B"
06
b100 V
b100 b
b100 3"
bx 9
bx 7"
bx F"
b0x00 8
b0x00 E"
b0x00 I"
b111 F
b111 0"
b111 8"
b100100 >
b100100 ""
b100100 1"
b100 H"
b111 L
b111 +"
b111 <"
b10000111000000000000000000 ~
b100 <
b100 a
b100 #"
b100 ;"
b100 :"
b111 )"
b111 ,"
b100100 ?
b100100 o
b100100 }
b10110000100001110000000000000000 G
b10110000100001110000000000000000 {
b100100 @
b100100 k
b100100 m
b100100 A
b100100 g
b100100 i
b100100 l
b100100 %"
b100000 =
b100000 h
b100000 z
b100000 2"
b0 ;
b0 e
b0 p
b0 ="
1!
#90000
b100 #
b111 *
b100 )
b100100 '
b10110000100001110000000000000000 %
b1000 +
0!
#95000
1B"
06
b100 V
b100 b
b100 3"
b110 W
b110 ]
b110 _
b100 7
b100 '"
b100 9"
0J
0X
b1 Y
b1 ^
b1 y
0O
b0 M
b0 w
b0 &"
1S
b0x0 8
b0x0 E"
b0x0 I"
b101 F
b101 0"
b101 8"
b101000 >
b101000 ""
b101000 1"
b11111111111111111111111111111110 I
b11111111111111111111111111111110 `
b11111111111111111111111111111110 c
b11111111111111111111111111111110 D"
b1100 j
b10 H"
b101 L
b101 +"
b101 <"
b1000101000000000000001100 ~
b11 E
b11 6"
b11 A"
b11 @"
b11 H
b11 d
b11 ?"
b11 >"
b11 Z
b11 t
b1010 u
b10 <
b10 a
b10 #"
b10 ;"
b10 :"
b101 )"
b101 ,"
b101000 ?
b101000 o
b101000 }
b101000010001010000000000000011 G
b101000010001010000000000000011 {
b110100 @
b110100 k
b110100 m
b101000 A
b101000 g
b101000 i
b101000 l
b101000 %"
b100100 =
b100100 h
b100100 z
b100100 2"
b11111111111111111111111111111110 ;
b11111111111111111111111111111110 e
b11111111111111111111111111111110 p
b11111111111111111111111111111110 ="
1!
#100000
b101 *
b10 )
b101000 '
b101000010001010000000000000011 %
b1001 +
0!
#105000
1B"
06
b100 V
b100 b
b100 3"
1J
b10 W
b10 ]
b10 _
b1 K
b1 v
b1 /"
0S
b10 I
b10 `
b10 c
b10 D"
b1000 F
b1000 0"
b1000 8"
b101100 >
b101100 ""
b101100 1"
b10000000001001100 j
b10 Y
b10 ^
b10 y
b10 ;
b10 e
b10 p
b10 ="
b11 L
b11 +"
b11 <"
b1000011010000000001001100 ~
b100000000010011 E
b100000000010011 6"
b100000000010011 A"
b100000000010011 @"
b100000000010011 H
b100000000010011 d
b100000000010011 ?"
b100000000010011 >"
b10011 Z
b10011 t
b0 u
b11 )"
b1000 -"
b11 ,"
b101100 ?
b101100 o
b101100 }
b10000110100000000010011 G
b10000110100000000010011 {
b10000000001111000 @
b10000000001111000 k
b10000000001111000 m
b101100 A
b101100 g
b101100 i
b101100 l
b101100 %"
b101000 =
b101000 h
b101000 z
b101000 2"
1!
#110000
b1000 (
b11 *
b101100 '
b10000110100000000010011 %
b1010 +
0!
#115000
b1000 7
b1000 '"
b1000 9"
b1000 :
b1000 q
b1000 ("
b1000 5"
1B"
06
b1000 V
b1000 b
b1000 3"
b10 W
b10 ]
b10 _
1N
b1000 9
b1000 7"
b1000 F"
b0 K
b0 v
b0 /"
0J
1X
b0 8
b0 E"
b0 I"
b1000 I
b1000 `
b1000 c
b1000 D"
b1 F
b1 0"
b1 8"
b110000 >
b110000 ""
b110000 1"
b100000 j
b0 Y
b0 ^
b0 y
b0 H"
b1 ;
b1 e
b1 p
b1 ="
b1 L
b1 +"
b1 <"
b1000000000000100000 ~
b1000 E
b1000 6"
b1000 A"
b1000 @"
b1000 H
b1000 d
b1000 ?"
b1000 >"
b1000 Z
b1000 t
b101101 u
b0 <
b0 a
b0 #"
b0 ;"
b0 :"
b1 )"
b0 -"
b1 ,"
b110000 ?
b110000 o
b110000 }
b10110100000000010000000000001000 G
b10110100000000010000000000001000 {
b1010000 @
b1010000 k
b1010000 m
b110000 A
b110000 g
b110000 i
b110000 l
b110000 %"
b101100 =
b101100 h
b101100 z
b101100 2"
1!
#120000
b1 $
b1000 #
b1 *
b0 )
b110000 '
b10110100000000010000000000001000 %
b1011 +
0!
#125000
1n
b0 7
b0 '"
b0 9"
b0 :
b0 q
b0 ("
b0 5"
15
0B"
16
b0 V
b0 b
b0 3"
b110 W
b110 ]
b110 _
0X
b1 Y
b1 ^
b1 y
0N
bx 9
bx 7"
bx F"
0J
1S
b0x00 8
b0x00 E"
b0x00 I"
b1000 F
b1000 0"
b1000 8"
b111100 >
b111100 ""
b111100 1"
b100 I
b100 `
b100 c
b100 D"
b1000 j
b100 H"
b100 ;
b100 e
b100 p
b100 ="
b1000 L
b1000 +"
b1000 <"
b10001000000000000000001000 ~
b10 E
b10 6"
b10 A"
b10 @"
b10 H
b10 d
b10 ?"
b10 >"
b10 Z
b10 t
b1010 u
b100 <
b100 a
b100 #"
b100 ;"
b100 :"
b1000 )"
b1000 ,"
b111100 ?
b111100 o
b111100 }
b101000100010000000000000000010 G
b101000100010000000000000000010 {
b111100 @
b111100 k
b111100 m
b110100 A
b110100 g
b110100 i
b110100 l
b110100 %"
b110000 =
b110000 h
b110000 z
b110000 2"
1!
#130000
b1000 *
b100 )
b111100 '
b101000100010000000000000000010 %
b1100 +
0!
#135000
b1 7
b1 '"
b1 9"
b1 :
b1 q
b1 ("
b1 5"
05
1B"
06
b1 V
b1 b
b1 3"
b10 W
b10 ]
b10 _
1J
b11 Y
b11 ^
b11 y
1X
0n
b1 9
b1 7"
b1 F"
0S
b0 8
b0 E"
b0 I"
b1 I
b1 `
b1 c
b1 D"
b1010 F
b1010 0"
b1010 8"
b1000000 >
b1000000 ""
b1000000 1"
b100 j
b0 H"
b0 ;
b0 e
b0 p
b0 ="
b1010 L
b1010 +"
b1010 <"
b1010000000000000000100 ~
b1 E
b1 6"
b1 A"
b1 @"
b1 H
b1 d
b1 ?"
b1 >"
b1 Z
b1 t
b1000 u
b0 <
b0 a
b0 #"
b0 ;"
b0 :"
b1010 )"
b1010 ,"
b1000000 ?
b1000000 o
b1000000 }
b100000000010100000000000000001 G
b100000000010100000000000000001 {
b1000100 @
b1000100 k
b1000100 m
b1000000 A
b1000000 g
b1000000 i
b1000000 l
b1000000 %"
b111100 =
b111100 h
b111100 z
b111100 2"
1!
#140000
b1010 *
b0 )
b1000000 '
b100000000010100000000000000001 %
b1101 +
0!
#145000
b10000 7
b10000 '"
b10000 9"
b10000 :
b10000 q
b10000 ("
b10000 5"
1B"
06
b10000 V
b10000 b
b10000 3"
b10 W
b10 ]
b10 _
b0 Y
b0 ^
b0 y
1N
b10000 9
b10000 7"
b10000 F"
0J
b1 F
b1 0"
b1 8"
b1000100 >
b1000100 ""
b1000100 1"
b10000 I
b10000 `
b10000 c
b10000 D"
b1000000 j
b1 L
b1 +"
b1 <"
b1000000000001000000 ~
b10000 E
b10000 6"
b10000 A"
b10000 @"
b10000 H
b10000 d
b10000 ?"
b10000 >"
b10000 Z
b10000 t
b101101 u
b1 )"
b1 ,"
b1000100 ?
b1000100 o
b1000100 }
b10110100000000010000000000010000 G
b10110100000000010000000000010000 {
b10000100 @
b10000100 k
b10000100 m
b1000100 A
b1000100 g
b1000100 i
b1000100 l
b1000100 %"
b1000000 =
b1000000 h
b1000000 z
b1000000 2"
b1 ;
b1 e
b1 p
b1 ="
1!
#150000
b10000 #
b1 *
b1000100 '
b10110100000000010000000000010000 %
b1110 +
0!
#155000
b0 7
b0 '"
b0 9"
b0 :
b0 q
b0 ("
b0 5"
0B"
16
b0 V
b0 b
b0 3"
b110 W
b110 ]
b110 _
0n
0X
05
b110 Y
b110 ^
b110 y
0N
1S
1R
bx 9
bx 7"
bx F"
0J
b0x0 8
b0x0 E"
b0x0 I"
b11 F
b11 0"
b11 8"
b1001000 >
b1001000 ""
b1001000 1"
b10 I
b10 `
b10 c
b10 D"
b1100 j
b10 H"
b10 ;
b10 e
b10 p
b10 ="
b11 L
b11 +"
b11 <"
b1000011000000000000001100 ~
b11 E
b11 6"
b11 A"
b11 @"
b11 H
b11 d
b11 ?"
b11 >"
b11 Z
b11 t
b1011 u
b10 <
b10 a
b10 #"
b10 ;"
b10 :"
b11 )"
b11 ,"
b1001000 ?
b1001000 o
b1001000 }
b101100010000110000000000000011 G
b101100010000110000000000000011 {
b1010100 @
b1010100 k
b1010100 m
b1001000 A
b1001000 g
b1001000 i
b1001000 l
b1001000 %"
b1000100 =
b1000100 h
b1000100 z
b1000100 2"
1!
#160000
b11 *
b10 )
b1001000 '
b101100010000110000000000000011 %
b1111 +
0!
#165000
b11 7
b11 '"
b11 9"
b11 :
b11 q
b11 ("
b11 5"
1B"
06
b11 V
b11 b
b11 3"
b10 W
b10 ]
b10 _
1J
b11 Y
b11 ^
b11 y
1X
05
0S
0R
b11 9
b11 7"
b11 F"
b0 8
b0 E"
b0 I"
b11 I
b11 `
b11 c
b11 D"
b1011 F
b1011 0"
b1011 8"
b1001100 >
b1001100 ""
b1001100 1"
b0 H"
b0 ;
b0 e
b0 p
b0 ="
b1011 L
b1011 +"
b1011 <"
b1011000000000000001100 ~
b1000 u
b0 <
b0 a
b0 #"
b0 ;"
b0 :"
b1011 )"
b1011 ,"
b1001100 ?
b1001100 o
b1001100 }
b100000000010110000000000000011 G
b100000000010110000000000000011 {
b1011000 @
b1011000 k
b1011000 m
b1001100 A
b1001100 g
b1001100 i
b1001100 l
b1001100 %"
b1001000 =
b1001000 h
b1001000 z
b1001000 2"
1!
#170000
b1011 *
b0 )
b1001100 '
b100000000010110000000000000011 %
b10000 +
0!
#175000
b10100 7
b10100 '"
b10100 9"
b10100 :
b10100 q
b10100 ("
b10100 5"
1B"
06
b10100 V
b10100 b
b10100 3"
b10 W
b10 ]
b10 _
b0 Y
b0 ^
b0 y
1N
b10100 9
b10100 7"
b10100 F"
0J
b100 F
b100 0"
b100 8"
b1010000 >
b1010000 ""
b1010000 1"
b10100 I
b10100 `
b10100 c
b10100 D"
b1010000 j
b100 L
b100 +"
b100 <"
b100000000000001010000 ~
b10100 E
b10100 6"
b10100 A"
b10100 @"
b10100 H
b10100 d
b10100 ?"
b10100 >"
b10100 Z
b10100 t
b101101 u
b100 )"
b100 ,"
b1010000 ?
b1010000 o
b1010000 }
b10110100000001000000000000010100 G
b10110100000001000000000000010100 {
b10100000 @
b10100000 k
b10100000 m
b1010000 A
b1010000 g
b1010000 i
b1010000 l
b1010000 %"
b1001100 =
b1001100 h
b1001100 z
b1001100 2"
b100 ;
b100 e
b100 p
b100 ="
1!
#180000
b100 $
b10100 #
b100 *
b1010000 '
b10110100000001000000000000010100 %
b10001 +
0!
#185000
b100 7
b100 '"
b100 9"
b100 :
b100 q
b100 ("
b100 5"
1B"
06
b100 V
b100 b
b100 3"
b110 W
b110 ]
b110 _
1n
0X
15
b110 Y
b110 ^
b110 y
0N
1S
1R
bx 9
bx 7"
bx F"
0J
b0x0 8
b0x0 E"
b0x0 I"
b101 F
b101 0"
b101 8"
b1011100 >
b1011100 ""
b1011100 1"
b11111111111111111111111111111110 I
b11111111111111111111111111111110 `
b11111111111111111111111111111110 c
b11111111111111111111111111111110 D"
b1000 j
b10 H"
b11111111111111111111111111111110 ;
b11111111111111111111111111111110 e
b11111111111111111111111111111110 p
b11111111111111111111111111111110 ="
b101 L
b101 +"
b101 <"
b1000101000000000000001000 ~
b10 E
b10 6"
b10 A"
b10 @"
b10 H
b10 d
b10 ?"
b10 >"
b10 Z
b10 t
b1011 u
b10 <
b10 a
b10 #"
b10 ;"
b10 :"
b101 )"
b101 ,"
b1011100 ?
b1011100 o
b1011100 }
b101100010001010000000000000010 G
b101100010001010000000000000010 {
b1011100 @
b1011100 k
b1011100 m
b1010100 A
b1010100 g
b1010100 i
b1010100 l
b1010100 %"
b1010000 =
b1010000 h
b1010000 z
b1010000 2"
1!
#190000
b101 *
b10 )
b1011100 '
b101100010001010000000000000010 %
b10010 +
0!
#195000
b11 7
b11 '"
b11 9"
b11 :
b11 q
b11 ("
b11 5"
1B"
06
b11 V
b11 b
b11 3"
b10 W
b10 ]
b10 _
1J
b11 Y
b11 ^
b11 y
1X
0n
05
0S
0R
b11 9
b11 7"
b11 F"
b0 8
b0 E"
b0 I"
b11 I
b11 `
b11 c
b11 D"
b1101 F
b1101 0"
b1101 8"
b1100000 >
b1100000 ""
b1100000 1"
b1100 j
b0 H"
b0 ;
b0 e
b0 p
b0 ="
b1101 L
b1101 +"
b1101 <"
b1101000000000000001100 ~
b11 E
b11 6"
b11 A"
b11 @"
b11 H
b11 d
b11 ?"
b11 >"
b11 Z
b11 t
b1000 u
b0 <
b0 a
b0 #"
b0 ;"
b0 :"
b1101 )"
b1101 ,"
b1100000 ?
b1100000 o
b1100000 }
b100000000011010000000000000011 G
b100000000011010000000000000011 {
b1101100 @
b1101100 k
b1101100 m
b1100000 A
b1100000 g
b1100000 i
b1100000 l
b1100000 %"
b1011100 =
b1011100 h
b1011100 z
b1011100 2"
1!
#200000
b1101 *
b0 )
b1100000 '
b100000000011010000000000000011 %
b10011 +
0!
