Lab5/cpu.vcd
$date
	Tue Jun 22 17:01:13 2021
$end
$version
	Icarus Verilog
$end
$timescale
	1ps
$end
$scope module TestBench $end
$var reg 1 ! CLK $end
$var reg 1 " RST $end
$var integer 32 # count [31:0] $end
$scope module cpu $end
$var wire 1 ! clk_i $end
$var wire 1 " rst_n $end
$var wire 5 $ toshifter [4:0] $end
$var wire 1 % zero $end
$var wire 32 & result [31:0] $end
$var wire 1 ' regwrite $end
$var wire 32 ( regresult [31:0] $end
$var wire 2 ) regdst [1:0] $end
$var wire 32 * redmonster [31:0] $end
$var wire 32 + pc_out [31:0] $end
$var wire 32 , pc_next [31:0] $end
$var wire 32 - pc_cal [31:0] $end
$var wire 32 . pc_back [31:0] $end
$var wire 32 / muxalu [31:0] $end
$var wire 1 0 memwrite $end
$var wire 2 1 memtoreg [1:0] $end
$var wire 1 2 memread $end
$var wire 32 3 instr_o [31:0] $end
$var wire 32 4 if_id_pc_next [31:0] $end
$var wire 32 5 if_id_instr_o [31:0] $end
$var wire 32 6 extend2 [31:0] $end
$var wire 32 7 extend [31:0] $end
$var wire 1 8 branch $end
$var wire 5 9 WriteReg1 [4:0] $end
$var wire 32 : RTdata [31:0] $end
$var wire 32 ; RSdata [31:0] $end
$var wire 32 < MEM_WB_result [31:0] $end
$var wire 1 = MEM_WB_regwrite $end
$var wire 32 > MEM_WB_redmonster [31:0] $end
$var wire 2 ? MEM_WB_memtoreg [1:0] $end
$var wire 5 @ MEM_WB_WriteReg1 [4:0] $end
$var wire 1 A ID_EX_regwrite $end
$var wire 2 B ID_EX_regdst [1:0] $end
$var wire 32 C ID_EX_pc_next [31:0] $end
$var wire 1 D ID_EX_memwrite $end
$var wire 2 E ID_EX_memtoreg [1:0] $end
$var wire 1 F ID_EX_memread $end
$var wire 32 G ID_EX_instr_o [31:0] $end
$var wire 32 H ID_EX_extend [31:0] $end
$var wire 1 I ID_EX_branch $end
$var wire 32 J ID_EX_RTdata [31:0] $end
$var wire 32 K ID_EX_RSdata [31:0] $end
$var wire 3 L ID_EX_ALU_op [2:0] $end
$var wire 1 M ID_EX_ALUSrc $end
$var wire 1 N EX_MEM_zero $end
$var wire 32 O EX_MEM_result [31:0] $end
$var wire 1 P EX_MEM_regwrite $end
$var wire 32 Q EX_MEM_pc_cal [31:0] $end
$var wire 1 R EX_MEM_memwrite $end
$var wire 2 S EX_MEM_memtoreg [1:0] $end
$var wire 1 T EX_MEM_memread $end
$var wire 1 U EX_MEM_branch $end
$var wire 5 V EX_MEM_WriteReg1 [4:0] $end
$var wire 32 W EX_MEM_RTdata [31:0] $end
$var wire 3 X ALU_op [2:0] $end
$var wire 4 Y ALU_control [3:0] $end
$var wire 1 Z ALUSrc $end
$scope module ALU $end
$var wire 32 [ aluSrc1 [31:0] $end
$var wire 32 \ aluSrc2 [31:0] $end
$var wire 1 % Zero $end
$var wire 4 ] ALUctl [3:0] $end
$var reg 32 ^ ALUOut [31:0] $end
$upscope $end
$scope module ALU_Control $end
$var wire 3 _ ALUOp_i [2:0] $end
$var wire 6 ` funct_i [5:0] $end
$var wire 1 a ShifterV_o $end
$var wire 2 b FURslt_o [1:0] $end
$var wire 4 c ALU_operation_o [3:0] $end
$upscope $end
$scope module Add_pc $end
$var wire 32 d src2_i [31:0] $end
$var wire 32 e sum_o [31:0] $end
$var wire 32 f src1_i [31:0] $end
$upscope $end
$scope module Add_pc_branch $end
$var wire 32 g src1_i [31:0] $end
$var wire 32 h sum_o [31:0] $end
$var wire 32 i src2_i [31:0] $end
$upscope $end
$scope module Control $end
$var wire 6 j funct_i [5:0] $end
$var wire 6 k instr_op_i [5:0] $end
$var wire 1 ' RegWrite_o $end
$var wire 2 l RegDst_o [1:0] $end
$var wire 2 m MemtoReg_o [1:0] $end
$var wire 1 0 MemWrite_o $end
$var wire 1 2 MemRead_o $end
$var wire 2 n Jump_o [1:0] $end
$var wire 1 8 Branch_o $end
$var wire 1 o BranchType_o $end
$var wire 1 p Blt_o $end
$var wire 1 q Bgez_o $end
$var wire 1 Z ALUSrc_o $end
$var wire 3 r ALUOp_o [2:0] $end
$upscope $end
$scope module DM $end
$var wire 1 T MemRead_i $end
$var wire 1 R MemWrite_i $end
$var wire 32 s addr_i [31:0] $end
$var wire 1 ! clk_i $end
$var wire 32 t data_i [31:0] $end
$var reg 32 u data_o [31:0] $end
$var integer 32 v i [31:0] $end
$upscope $end
$scope module EX_MEM $end
$var wire 1 ! clk_i $end
$var wire 108 w data_i [107:0] $end
$var wire 1 " rst_n $end
$var reg 108 x data_o [107:0] $end
$upscope $end
$scope module ID_EX $end
$var wire 1 ! clk_i $end
$var wire 172 y data_i [171:0] $end
$var wire 1 " rst_n $end
$var reg 172 z data_o [171:0] $end
$upscope $end
$scope module IF_ID $end
$var wire 1 ! clk_i $end
$var wire 64 { data_i [63:0] $end
$var wire 1 " rst_n $end
$var reg 64 | data_o [63:0] $end
$upscope $end
$scope module IM $end
$var wire 32 } pc_addr_i [31:0] $end
$var reg 32 ~ instr_o [31:0] $end
$var integer 32 !" i [31:0] $end
$upscope $end
$scope module MEM_WB $end
$var wire 1 ! clk_i $end
$var wire 72 "" data_i [71:0] $end
$var wire 1 " rst_n $end
$var reg 72 #" data_o [71:0] $end
$upscope $end
$scope module Mux0 $end
$var wire 32 $" data0_i [31:0] $end
$var wire 32 %" data1_i [31:0] $end
$var wire 1 &" select_i $end
$var wire 32 '" data_o [31:0] $end
$upscope $end
$scope module Mux3 $end
$var wire 32 (" data0_i [31:0] $end
$var wire 32 )" data1_i [31:0] $end
$var wire 32 *" data2_i [31:0] $end
$var wire 2 +" select_i [1:0] $end
$var wire 32 ," data_o [31:0] $end
$upscope $end
$scope module Mux_ALUSrc $end
$var wire 32 -" data0_i [31:0] $end
$var wire 32 ." data1_i [31:0] $end
$var wire 1 M select_i $end
$var wire 32 /" data_o [31:0] $end
$upscope $end
$scope module Mux_Write_Reg $end
$var wire 5 0" data0_i [4:0] $end
$var wire 5 1" data1_i [4:0] $end
$var wire 5 2" data2_i [4:0] $end
$var wire 2 3" select_i [1:0] $end
$var wire 5 4" data_o [4:0] $end
$upscope $end
$scope module PC $end
$var wire 1 ! clk_i $end
$var wire 32 5" pc_in_i [31:0] $end
$var wire 1 " rst_n $end
$var reg 32 6" pc_out_o [31:0] $end
$upscope $end
$scope module RF $end
$var wire 5 7" RDaddr_i [4:0] $end
$var wire 32 8" RDdata_i [31:0] $end
$var wire 5 9" RSaddr_i [4:0] $end
$var wire 32 :" RSdata_o [31:0] $end
$var wire 5 ;" RTaddr_i [4:0] $end
$var wire 32 <" RTdata_o [31:0] $end
$var wire 1 = RegWrite_i $end
$var wire 1 ! clk_i $end
$var wire 1 " rst_n $end
$upscope $end
$scope module Shift $end
$var wire 1 =" leftRight $end
$var wire 32 >" sftSrc [31:0] $end
$var wire 5 ?" shamt [4:0] $end
$var wire 32 @" result [31:0] $end
$upscope $end
$scope module Sign_Extend $end
$var wire 16 A" data_i [15:0] $end
$var wire 32 B" data_o [31:0] $end
$upscope $end
$upscope $end
$upscope $end
$scope module Zero_Filled $end
$var wire 16 C" data_i [15:0] $end
$var wire 32 D" data_o [31:0] $end
$upscope $end
$enddefinitions $end
#0
$dumpvars
bz0000000000000000 D"
bz C"
bx B"
bx A"
bx @"
bz ?"
bx >"
x="
bx <"
bx ;"
bx :"
bx 9"
bx 8"
bx 7"
b0 6"
bx 5"
bx 4"
bx 3"
b11111 2"
bx 1"
bx 0"
bx /"
bx ."
bx -"
bx ,"
bx +"
b100 *"
bx )"
bx ("
bx '"
x&"
bx %"
b100 $"
bx #"
bx ""
b100000 !"
b100000000000010000000000011111 ~
b0 }
bx |
b10000100000000000010000000000011111 {
bx z
bx y
bx x
bx100000000000000000000000000000000xxxxxxxxxxxxxxxxxxxxxxxxxxxxxxxxxxxxx w
b10000000 v
bx u
bx t
bx s
bx r
xq
xp
xo
bx n
bx m
bx l
bx k
bz j
bx i
bx h
bx g
b0 f
b100 e
b100 d
bx c
b0x b
xa
bx `
bx _
b0 ^
bx ]
bx \
bx [
xZ
bx Y
bx X
bx W
bx V
xU
xT
bx S
xR
bx Q
xP
bx O
xN
xM
bx L
bx K
bx J
xI
bx H
bx G
xF
bx E
xD
bx C
bx B
xA
bx @
bx ?
bx >
x=
bx <
bx ;
bx :
bx 9
x8
bx 7
bx 6
bx 5
bx 4
b100000000000010000000000011111 3
x2
bx 1
x0
bx /
bx .
bx -
b100 ,
b0 +
bx *
bx )
bx (
x'
b0 &
1%
bz $
b0 #
0"
0!
$end
#5000
bx0 n
0="
b1 )
b1 l
0Z
0p
0q
00
02
b0 1
b0 m
08
0o
b0 9
b0 4"
b0 Y
b0 ]
b0 c
b10 X
b10 r
0a
b0 ;
b0 :"
b0 9"
b0 :
b0 <"
b0 ;"
b0 k
b0 7
b0 B"
b0 A"
b0 `
b0 0"
b0 1"
b0 /
b0 \
b0 /"
b0 b
b100 .
b100 '"
b100 5"
0&"
b0 (
b0 ,"
b0 8"
b0 5
bx010001000000000000000000000000000000000000000000000000000000000000000000000000000000000000000000000000000000000000000000000000000000000000000000000000000000000000000000000 y
b0 4
b0 G
b0 C
b0 g
b0 J
b0 -"
b0 K
b0 [
b0 H
b0 ."
b0 >"
b0 E
0D
0F
0I
b0 B
b0 3"
0M
b0 L
b0 _
b0xxxxxxxxxxxxxxxxxxxxxxxxxxxxxxxx1000000000000000000000000000000000000000000000000000000000000000000000 w
0A
b0 V
b0 W
b0 t
b0 O
b0 s
0N
b0 Q
b0 %"
b0 S
0R
0T
0U
b0xxxxxxxxxxxxxxxxxxxxxxxxxxxxxxxx ""
0P
b0 >
b0 )"
b0 <
b0 ("
b0 @
b0 7"
b0 ?
b0 +"
0=
b0 |
b0 z
b0 x
b0 #"
b1 #
1!
#10000
0!
1"
#15000
1'
b0 n
b10 Y
b10 ]
b10 c
b0 )
b0 l
1Z
b11 X
b11 r
b1 ;"
b1000 k
b11111 7
b11111 B"
b11111 A"
bx >
bx )"
1N
bx Q
bx %"
b1 B
b1 3"
b10 L
b10 _
bx00000xxxxxxxxxxxxxxxxxxxxxxxxxxxxxxxx1000000000000000000000000000000000000000000000000000000000000000000000 w
xA
b100000000000010000000000011111 5
b1011100000000000000000000000000000000001111100000000000000000000000000000000000000000000000000000000000000000000000000000000000000000000010000100000000000010000000000011111 y
b100 4
b1000 .
b1000 '"
b1000 5"
b100000000000100000000000010001 3
b100000000000100000000000010001 ~
b0xxxxxxxxxxxxxxxxxxxxxxxxxxxxxxxx #"
b0xxxxxxxxxxxxxxxxxxxxxxxxxxxxxxxx1000000000000000000000000000000000000000000000000000000000000000000000 x
bx010001000000000000000000000000000000000000000000000000000000000000000000000000000000000000000000000000000000000000000000000000000000000000000000000000000000000000000000000 z
b10000100000000000010000000000011111 |
b100000100000000000100000000000010001 {
b1000 ,
b1000 e
b1000 $"
b1000 *"
b100 +
b100 f
b100 }
b100 6"
b10 #
1!
#20000
0!
#25000
1%
b0 &
b0 ^
b1 9
b1 4"
b0 Y
b0 ]
b0 c
b10 ;"
b10001 7
b10001 B"
b10001 A"
b11111 `
b1 0"
b11111 /
b11111 \
b11111 /"
b100000000000100000000000010001 5
b1011100000000000000000000000000000000001000100000000000000000000000000000000000000000000000000000000000000000000000000000000000000000000100000100000000000100000000000010001 y
b1000 4
b100000000000010000000000011111 G
b100 C
b100 g
b11111 H
b11111 ."
b11111 >"
b0 B
b0 3"
1M
b11 L
b11 _
b100000xxxxxxxxxxxxxxxxxxxxxxxxxxxxxxxx1000000000000000000000000000000000000000000000000000000000000000000001 w
1A
bx000000000000000000000000000000000000000xxxxxxxxxxxxxxxxxxxxxxxxxxxxxxxx ""
xP
b1100 .
b1100 '"
b1100 5"
b100000000001000000000000001110 3
b100000000001000000000000001110 ~
b100000100000000000100000000000010001 |
b1011100000000000000000000000000000000001111100000000000000000000000000000000000000000000000000000000000000000000000000000000000000000000010000100000000000010000000000011111 z
bx00000xxxxxxxxxxxxxxxxxxxxxxxxxxxxxxxx1000000000000000000000000000000000000000000000000000000000000000000000 x
b110000100000000001000000000000001110 {
b1100 ,
b1100 e
b1100 $"
b1100 *"
b1000 +
b1000 f
b1000 }
b1000 6"
b11 #
1!
#30000
0!
#35000
b100000xxxxxxxxxxxxxxxxxxxxxxxxxxxxxxxx1000000000000000000000000000000000000000000000000000000000000000000010 w
b10 9
b10 4"
b10001 `
b10 0"
b10001 /
b10001 \
b10001 /"
b100 ;"
b1110 7
b1110 B"
b1110 A"
x=
b1 V
b1000000100000000000000000000000000000000xxxxxxxxxxxxxxxxxxxxxxxxxxxxxxxx ""
1P
b100000000000100000000000010001 G
b1000 C
b1000 g
b10001 H
b10001 ."
b10001 >"
b100000000001000000000000001110 5
b1011100000000000000000000000000000000000111000000000000000000000000000000000000000000000000000000000000000000000000000000000000000000000110000100000000001000000000000001110 y
b1100 4
b10000 .
b10000 '"
b10000 5"
b101001100001100000010100 3
b101001100001100000010100 ~
bx000000000000000000000000000000000000000xxxxxxxxxxxxxxxxxxxxxxxxxxxxxxxx #"
b100000xxxxxxxxxxxxxxxxxxxxxxxxxxxxxxxx1000000000000000000000000000000000000000000000000000000000000000000001 x
b1011100000000000000000000000000000000001000100000000000000000000000000000000000000000000000000000000000000000000000000000000000000000000100000100000000000100000000000010001 z
b110000100000000001000000000000001110 |
b1000000000000101001100001100000010100 {
b10000 ,
b10000 e
b10000 $"
b10000 *"
b1100 +
b1100 f
b1100 }
b1100 6"
b100 #
1!
#40000
0!
#45000
x'
bx0 n
b1 )
b1 l
0Z
b100000xxxxxxxxxxxxxxxxxxxxxxxxxxxxxxxx1000000000000000000000000000000000000000000000000000000000000000000100 w
b100 9
b100 4"
b10 X
b10 r
b101 9"
b110 ;"
b0 k
b1100000010100 7
b1100000010100 B"
b1100000010100 A"
b1110 `
b100 0"
b1110 /
b1110 \
b1110 /"
b101001100001100000010100 5
bx010001000000000000000000000000110000001010000000000000000000000000000000000000000000000000000000000000000000000000000000000000000000001000000000000101001100001100000010100 y
b10000 4
b100000000001000000000000001110 G
b1100 C
b1100 g
b1110 H
b1110 ."
b1110 >"
b1000001000000000000000000000000000000000xxxxxxxxxxxxxxxxxxxxxxxxxxxxxxxx ""
b10 V
b1 @
b1 7"
1=
b10100 .
b10100 '"
b10100 5"
b1000000010100000010110 3
b1000000010100000010110 ~
b1000000000000101001100001100000010100 |
b1011100000000000000000000000000000000000111000000000000000000000000000000000000000000000000000000000000000000000000000000000000000000000110000100000000001000000000000001110 z
b100000xxxxxxxxxxxxxxxxxxxxxxxxxxxxxxxx1000000000000000000000000000000000000000000000000000000000000000000010 x
b1000000100000000000000000000000000000000xxxxxxxxxxxxxxxxxxxxxxxxxxxxxxxx #"
b1010000000000001000000010100000010110 {
b10100 ,
b10100 e
b10100 $"
b10100 *"
b10000 +
b10000 f
b10000 }
b10000 6"
b101 #
1!
#50000
0!
#55000
b10 Y
b10 ]
b10 c
b11 9
b11 4"
b10100 `
b110 0"
b11 1"
b0 /
b0 \
b0 /"
b1 9"
b0 ;"
b10100000010110 7
b10100000010110 B"
b10100000010110 A"
b10 @
b10 7"
b1000010000000000000000000000000000000000xxxxxxxxxxxxxxxxxxxxxxxxxxxxxxxx ""
b100 V
b101001100001100000010100 G
b10000 C
b10000 g
b1100000010100 H
b1100000010100 ."
b1100000010100 >"
b1 B
b1 3"
0M
b10 L
b10 _
bx00000xxxxxxxxxxxxxxxxxxxxxxxxxxxxxxxx1000000000000000000000000000000000000000000000000000000000000000000011 w
xA
b1000000010100000010110 5
bx010001000000000000000000000001010000001011000000000000000000000000000000000000000000000000000000000000000000000000000000000000000000001010000000000001000000010100000010110 y
b10100 4
b11000 .
b11000 '"
b11000 5"
b10000010011000000110000 3
b10000010011000000110000 ~
b1000001000000000000000000000000000000000xxxxxxxxxxxxxxxxxxxxxxxxxxxxxxxx #"
b100000xxxxxxxxxxxxxxxxxxxxxxxxxxxxxxxx1000000000000000000000000000000000000000000000000000000000000000000100 x
bx010001000000000000000000000000110000001010000000000000000000000000000000000000000000000000000000000000000000000000000000000000000000001000000000000101001100001100000010100 z
b1010000000000001000000010100000010110 |
b1100000000000010000010011000000110000 {
b11000 ,
b11000 e
b11000 $"
b11000 *"
b10100 +
b10100 f
b10100 }
b10100 6"
b110 #
1!
#60000
0!
#65000
bx00000xxxxxxxxxxxxxxxxxxxxxxxxxxxxxxxx1000000000000000000000000000000000000000000000000000000000000000000101 w
b101 9
b101 4"
b10 9"
b1 ;"
b11000000110000 7
b11000000110000 B"
b11000000110000 A"
b10110 `
b0 0"
b101 1"
b10000010011000000110000 5
bx010001000000000000000000000001100000011000000000000000000000000000000000000000000000000000000000000000000000000000000000000000000000001100000000000010000010011000000110000 y
b11000 4
b1000000010100000010110 G
b10100 C
b10100 g
b10100000010110 H
b10100000010110 ."
b10100000010110 >"
b11 V
bx000001100000000000000000000000000000000xxxxxxxxxxxxxxxxxxxxxxxxxxxxxxxx ""
xP
b100 @
b100 7"
b11100 .
b11100 '"
b11100 5"
b0 3
b0 ~
b1100000000000010000010011000000110000 |
bx010001000000000000000000000001010000001011000000000000000000000000000000000000000000000000000000000000000000000000000000000000000000001010000000000001000000010100000010110 z
bx00000xxxxxxxxxxxxxxxxxxxxxxxxxxxxxxxx1000000000000000000000000000000000000000000000000000000000000000000011 x
b1000010000000000000000000000000000000000xxxxxxxxxxxxxxxxxxxxxxxxxxxxxxxx #"
b1110000000000000000000000000000000000 {
b11100 ,
b11100 e
b11100 $"
b11100 *"
b11000 +
b11000 f
b11000 }
b11000 6"
b111 #
1!
#70000
0!
#75000
bx00000xxxxxxxxxxxxxxxxxxxxxxxxxxxxxxxx1000000000000000000000000000000000000000000000000000000000000000000110 w
b110 9
b110 4"
b110000 `
b1 0"
b110 1"
b0 9"
b0 ;"
b0 7
b0 B"
b0 A"
b11 @
b11 7"
x=
bx000010100000000000000000000000000000000xxxxxxxxxxxxxxxxxxxxxxxxxxxxxxxx ""
b101 V
b10000010011000000110000 G
b11000 C
b11000 g
b11000000110000 H
b11000000110000 ."
b11000000110000 >"
b0 5
bx010001000000000000000000000000000000000000000000000000000000000000000000000000000000000000000000000000000000000000000000000000000000001110000000000000000000000000000000000 y
b11100 4
b100000 .
b100000 '"
b100000 5"
bx000001100000000000000000000000000000000xxxxxxxxxxxxxxxxxxxxxxxxxxxxxxxx #"
bx00000xxxxxxxxxxxxxxxxxxxxxxxxxxxxxxxx1000000000000000000000000000000000000000000000000000000000000000000101 x
bx010001000000000000000000000001100000011000000000000000000000000000000000000000000000000000000000000000000000000000000000000000000000001100000000000010000010011000000110000 z
b1110000000000000000000000000000000000 |
b10000000000000000000000000000000000000 {
b100000 ,
b100000 e
b100000 $"
b100000 *"
b11100 +
b11100 f
b11100 }
b11100 6"
b1000 #
1!
#80000
0!
#85000
bx00000xxxxxxxxxxxxxxxxxxxxxxxxxxxxxxxx1000000000000000000000000000000000000000000000000000000000000000000000 w
b0 9
b0 4"
b0 `
b0 0"
b0 1"
bx010001000000000000000000000000000000000000000000000000000000000000000000000000000000000000000000000000000000000000000000000000000000010000000000000000000000000000000000000 y
b100000 4
b0 G
b11100 C
b11100 g
b0 H
b0 ."
b0 >"
bx000011000000000000000000000000000000000xxxxxxxxxxxxxxxxxxxxxxxxxxxxxxxx ""
b110 V
b101 @
b101 7"
b100100 .
b100100 '"
b100100 5"
b10000000000000000000000000000000000000 |
bx010001000000000000000000000000000000000000000000000000000000000000000000000000000000000000000000000000000000000000000000000000000000001110000000000000000000000000000000000 z
bx00000xxxxxxxxxxxxxxxxxxxxxxxxxxxxxxxx1000000000000000000000000000000000000000000000000000000000000000000110 x
bx000010100000000000000000000000000000000xxxxxxxxxxxxxxxxxxxxxxxxxxxxxxxx #"
b10010000000000000000000000000000000000 {
b100100 ,
b100100 e
b100100 $"
b100100 *"
b100000 +
b100000 f
b100000 }
b100000 6"
b1001 #
1!
#90000
0!
#95000
b110 @
b110 7"
bx000000000000000000000000000000000000000xxxxxxxxxxxxxxxxxxxxxxxxxxxxxxxx ""
b0 V
b100000 C
b100000 g
bx010001000000000000000000000000000000000000000000000000000000000000000000000000000000000000000000000000000000000000000000000000000000010010000000000000000000000000000000000 y
b100100 4
b101000 .
b101000 '"
b101000 5"
bx000011000000000000000000000000000000000xxxxxxxxxxxxxxxxxxxxxxxxxxxxxxxx #"
bx00000xxxxxxxxxxxxxxxxxxxxxxxxxxxxxxxx1000000000000000000000000000000000000000000000000000000000000000000000 x
bx010001000000000000000000000000000000000000000000000000000000000000000000000000000000000000000000000000000000000000000000000000000000010000000000000000000000000000000000000 z
b10010000000000000000000000000000000000 |
b10100000000000000000000000000000000000 {
b101000 ,
b101000 e
b101000 $"
b101000 *"
b100100 +
b100100 f
b100100 }
b100100 6"
b1010 #
1!
#100000
0!
#105000
bx010001000000000000000000000000000000000000000000000000000000000000000000000000000000000000000000000000000000000000000000000000000000010100000000000000000000000000000000000 y
b101000 4
b100100 C
b100100 g
b0 @
b0 7"
b101100 .
b101100 '"
b101100 5"
b10100000000000000000000000000000000000 |
bx010001000000000000000000000000000000000000000000000000000000000000000000000000000000000000000000000000000000000000000000000000000000010010000000000000000000000000000000000 z
bx000000000000000000000000000000000000000xxxxxxxxxxxxxxxxxxxxxxxxxxxxxxxx #"
b10110000000000000000000000000000000000 {
b101100 ,
b101100 e
b101100 $"
b101100 *"
b101000 +
b101000 f
b101000 }
b101000 6"
b1011 #
1!
#110000
0!
#115000
b101000 C
b101000 g
bx010001000000000000000000000000000000000000000000000000000000000000000000000000000000000000000000000000000000000000000000000000000000010110000000000000000000000000000000000 y
b101100 4
b110000 .
b110000 '"
b110000 5"
bx010001000000000000000000000000000000000000000000000000000000000000000000000000000000000000000000000000000000000000000000000000000000010100000000000000000000000000000000000 z
b10110000000000000000000000000000000000 |
b11000000000000000000000000000000000000 {
b110000 ,
b110000 e
b110000 $"
b110000 *"
b101100 +
b101100 f
b101100 }
b101100 6"
b1100 #
1!
#120000
0!
#125000
bx010001000000000000000000000000000000000000000000000000000000000000000000000000000000000000000000000000000000000000000000000000000000011000000000000000000000000000000000000 y
b110000 4
b101100 C
b101100 g
b110100 .
b110100 '"
b110100 5"
b11000000000000000000000000000000000000 |
bx010001000000000000000000000000000000000000000000000000000000000000000000000000000000000000000000000000000000000000000000000000000000010110000000000000000000000000000000000 z
b11010000000000000000000000000000000000 {
b110100 ,
b110100 e
b110100 $"
b110100 *"
b110000 +
b110000 f
b110000 }
b110000 6"
b1101 #
1!
#130000
0!
#135000
b110000 C
b110000 g
bx010001000000000000000000000000000000000000000000000000000000000000000000000000000000000000000000000000000000000000000000000000000000011010000000000000000000000000000000000 y
b110100 4
b111000 .
b111000 '"
b111000 5"
bx010001000000000000000000000000000000000000000000000000000000000000000000000000000000000000000000000000000000000000000000000000000000011000000000000000000000000000000000000 z
b11010000000000000000000000000000000000 |
b11100000000000000000000000000000000000 {
b111000 ,
b111000 e
b111000 $"
b111000 *"
b110100 +
b110100 f
b110100 }
b110100 6"
b1110 #
1!
#140000
0!
#145000
bx010001000000000000000000000000000000000000000000000000000000000000000000000000000000000000000000000000000000000000000000000000000000011100000000000000000000000000000000000 y
b111000 4
b110100 C
b110100 g
b111100 .
b111100 '"
b111100 5"
b11100000000000000000000000000000000000 |
bx010001000000000000000000000000000000000000000000000000000000000000000000000000000000000000000000000000000000000000000000000000000000011010000000000000000000000000000000000 z
b11110000000000000000000000000000000000 {
b111100 ,
b111100 e
b111100 $"
b111100 *"
b111000 +
b111000 f
b111000 }
b111000 6"
b1111 #
1!
#150000
0!
#155000
b111000 C
b111000 g
bx010001000000000000000000000000000000000000000000000000000000000000000000000000000000000000000000000000000000000000000000000000000000011110000000000000000000000000000000000 y
b111100 4
b1000000 .
b1000000 '"
b1000000 5"
bx010001000000000000000000000000000000000000000000000000000000000000000000000000000000000000000000000000000000000000000000000000000000011100000000000000000000000000000000000 z
b11110000000000000000000000000000000000 |
b100000000000000000000000000000000000000 {
b1000000 ,
b1000000 e
b1000000 $"
b1000000 *"
b111100 +
b111100 f
b111100 }
b111100 6"
b10000 #
1!
#160000
0!
#165000
bx010001000000000000000000000000000000000000000000000000000000000000000000000000000000000000000000000000000000000000000000000000000000100000000000000000000000000000000000000 y
b1000000 4
b111100 C
b111100 g
b1000100 .
b1000100 '"
b1000100 5"
b100000000000000000000000000000000000000 |
bx010001000000000000000000000000000000000000000000000000000000000000000000000000000000000000000000000000000000000000000000000000000000011110000000000000000000000000000000000 z
b100010000000000000000000000000000000000 {
b1000100 ,
b1000100 e
b1000100 $"
b1000100 *"
b1000000 +
b1000000 f
b1000000 }
b1000000 6"
b10001 #
1!
#170000
0!
#175000
b1000000 C
b1000000 g
bx010001000000000000000000000000000000000000000000000000000000000000000000000000000000000000000000000000000000000000000000000000000000100010000000000000000000000000000000000 y
b1000100 4
b1001000 .
b1001000 '"
b1001000 5"
bx010001000000000000000000000000000000000000000000000000000000000000000000000000000000000000000000000000000000000000000000000000000000100000000000000000000000000000000000000 z
b100010000000000000000000000000000000000 |
b100100000000000000000000000000000000000 {
b1001000 ,
b1001000 e
b1001000 $"
b1001000 *"
b1000100 +
b1000100 f
b1000100 }
b1000100 6"
b10010 #
1!
#180000
0!
#185000
bx010001000000000000000000000000000000000000000000000000000000000000000000000000000000000000000000000000000000000000000000000000000000100100000000000000000000000000000000000 y
b1001000 4
b1000100 C
b1000100 g
b1001100 .
b1001100 '"
b1001100 5"
b100100000000000000000000000000000000000 |
bx010001000000000000000000000000000000000000000000000000000000000000000000000000000000000000000000000000000000000000000000000000000000100010000000000000000000000000000000000 z
b100110000000000000000000000000000000000 {
b1001100 ,
b1001100 e
b1001100 $"
b1001100 *"
b1001000 +
b1001000 f
b1001000 }
b1001000 6"
b10011 #
1!
#190000
0!
#195000
b1001000 C
b1001000 g
bx010001000000000000000000000000000000000000000000000000000000000000000000000000000000000000000000000000000000000000000000000000000000100110000000000000000000000000000000000 y
b1001100 4
b1010000 .
b1010000 '"
b1010000 5"
bx010001000000000000000000000000000000000000000000000000000000000000000000000000000000000000000000000000000000000000000000000000000000100100000000000000000000000000000000000 z
b100110000000000000000000000000000000000 |
b101000000000000000000000000000000000000 {
b1010000 ,
b1010000 e
b1010000 $"
b1010000 *"
b1001100 +
b1001100 f
b1001100 }
b1001100 6"
b10100 #
1!
#200000
0!
#205000
bx010001000000000000000000000000000000000000000000000000000000000000000000000000000000000000000000000000000000000000000000000000000000101000000000000000000000000000000000000 y
b1010000 4
b1001100 C
b1001100 g
b1010100 .
b1010100 '"
b1010100 5"
b101000000000000000000000000000000000000 |
bx010001000000000000000000000000000000000000000000000000000000000000000000000000000000000000000000000000000000000000000000000000000000100110000000000000000000000000000000000 z
b101010000000000000000000000000000000000 {
b1010100 ,
b1010100 e
b1010100 $"
b1010100 *"
b1010000 +
b1010000 f
b1010000 }
b1010000 6"
b10101 #
1!
#210000
0!
#215000
b1010000 C
b1010000 g
bx010001000000000000000000000000000000000000000000000000000000000000000000000000000000000000000000000000000000000000000000000000000000101010000000000000000000000000000000000 y
b1010100 4
b1011000 .
b1011000 '"
b1011000 5"
bx010001000000000000000000000000000000000000000000000000000000000000000000000000000000000000000000000000000000000000000000000000000000101000000000000000000000000000000000000 z
b101010000000000000000000000000000000000 |
b101100000000000000000000000000000000000 {
b1011000 ,
b1011000 e
b1011000 $"
b1011000 *"
b1010100 +
b1010100 f
b1010100 }
b1010100 6"
b10110 #
1!
#220000
0!
#225000
bx010001000000000000000000000000000000000000000000000000000000000000000000000000000000000000000000000000000000000000000000000000000000101100000000000000000000000000000000000 y
b1011000 4
b1010100 C
b1010100 g
b1011100 .
b1011100 '"
b1011100 5"
b101100000000000000000000000000000000000 |
bx010001000000000000000000000000000000000000000000000000000000000000000000000000000000000000000000000000000000000000000000000000000000101010000000000000000000000000000000000 z
b101110000000000000000000000000000000000 {
b1011100 ,
b1011100 e
b1011100 $"
b1011100 *"
b1011000 +
b1011000 f
b1011000 }
b1011000 6"
b10111 #
1!
#230000
0!
#235000
b1011000 C
b1011000 g
bx010001000000000000000000000000000000000000000000000000000000000000000000000000000000000000000000000000000000000000000000000000000000101110000000000000000000000000000000000 y
b1011100 4
b1100000 .
b1100000 '"
b1100000 5"
bx010001000000000000000000000000000000000000000000000000000000000000000000000000000000000000000000000000000000000000000000000000000000101100000000000000000000000000000000000 z
b101110000000000000000000000000000000000 |
b110000000000000000000000000000000000000 {
b1100000 ,
b1100000 e
b1100000 $"
b1100000 *"
b1011100 +
b1011100 f
b1011100 }
b1011100 6"
b11000 #
1!
#240000
0!
#245000
bx010001000000000000000000000000000000000000000000000000000000000000000000000000000000000000000000000000000000000000000000000000000000110000000000000000000000000000000000000 y
b1100000 4
b1011100 C
b1011100 g
b1100100 .
b1100100 '"
b1100100 5"
b110000000000000000000000000000000000000 |
bx010001000000000000000000000000000000000000000000000000000000000000000000000000000000000000000000000000000000000000000000000000000000101110000000000000000000000000000000000 z
b110010000000000000000000000000000000000 {
b1100100 ,
b1100100 e
b1100100 $"
b1100100 *"
b1100000 +
b1100000 f
b1100000 }
b1100000 6"
b11001 #
1!
#250000
0!
